sim/note_player/transcript
# Loading project note_player
# reading D:/program/intelFPGA/20.1/modelsim_ase/win32aloem/../modelsim.ini
# Loading project beater
# Compile of beater.v was successful.
# Compile of beater_tb.v was successful.
# 2 compiles, 0 failed with no errors.
vsim work.beater_tb
# vsim work.beater_tb 
# Start time: 20:21:35 on May 06,2026
# Loading work.beater_tb
# Loading work.beater
add wave sim:/beater_tb/*
run -all
# ** Error: (vsim-7) Failed to open VCD file "prj/vcd/beater.vcd" in write mode.
# No such file or directory. (errno = ENOENT)    : D:/constructing_projects/FPGA_projects/FPGA_design_course/lab19_MusicPlayer/src/testbench/beater_tb.v(65)
#    Time: 0 ps  Iteration: 0  Instance: /beater_tb
# Time=0, clk=0, ready=0, q=x, beat=0
# Time=5000, clk=1, ready=0, q=0, beat=0
# Time=10000, clk=0, ready=0, q=0, beat=0
# Time=15000, clk=1, ready=0, q=0, beat=0
# Time=20000, clk=0, ready=0, q=0, beat=0
# Time=25000, clk=1, ready=1, q=0, beat=0
# Time=30000, clk=0, ready=1, q=0, beat=0
# Time=35000, clk=1, ready=1, q=1, beat=0
# Time=40000, clk=0, ready=1, q=1, beat=0
# Time=45000, clk=1, ready=1, q=2, beat=1
# Time=50000, clk=0, ready=1, q=2, beat=1
# Time=55000, clk=1, ready=1, q=0, beat=0
# Time=60000, clk=0, ready=1, q=0, beat=0
# Time=65000, clk=1, ready=1, q=1, beat=0
# Time=70000, clk=0, ready=1, q=1, beat=0
# Time=75000, clk=1, ready=1, q=2, beat=1
# Time=80000, clk=0, ready=1, q=2, beat=1
# Time=85000, clk=1, ready=1, q=0, beat=0
# Time=90000, clk=0, ready=1, q=0, beat=0
# Time=95000, clk=1, ready=1, q=1, beat=0
# Time=100000, clk=0, ready=1, q=1, beat=0
# Time=105000, clk=1, ready=1, q=2, beat=1
# Time=110000, clk=0, ready=1, q=2, beat=1
# Time=115000, clk=1, ready=1, q=0, beat=0
# Time=120000, clk=0, ready=1, q=0, beat=0
# Time=125000, clk=1, ready=0, q=1, beat=0
# Time=130000, clk=0, ready=0, q=1, beat=0
# Time=135000, clk=1, ready=0, q=1, beat=0
# Time=140000, clk=0, ready=0, q=1, beat=0
# Time=145000, clk=1, ready=0, q=1, beat=0
# Time=150000, clk=0, ready=0, q=1, beat=0
# Time=155000, clk=1, ready=0, q=1, beat=0
# Time=160000, clk=0, ready=0, q=1, beat=0
# Time=165000, clk=1, ready=0, q=1, beat=0
# Time=170000, clk=0, ready=0, q=1, beat=0
# Time=175000, clk=1, ready=1, q=1, beat=0
# Time=180000, clk=0, ready=1, q=1, beat=0
# Time=185000, clk=1, ready=1, q=2, beat=1
# Time=190000, clk=0, ready=1, q=2, beat=1
# Time=195000, clk=1, ready=1, q=0, beat=0
# Time=200000, clk=0, ready=1, q=0, beat=0
# Time=205000, clk=1, ready=1, q=1, beat=0
# Time=210000, clk=0, ready=1, q=1, beat=0
# Time=215000, clk=1, ready=1, q=2, beat=1
# Time=220000, clk=0, ready=1, q=2, beat=1
# Time=225000, clk=1, ready=1, q=0, beat=0
# Time=230000, clk=0, ready=1, q=0, beat=0
# Time=235000, clk=1, ready=1, q=1, beat=0
# Time=240000, clk=0, ready=1, q=1, beat=0
# Time=245000, clk=1, ready=1, q=2, beat=1
# Time=250000, clk=0, ready=1, q=2, beat=1
# Time=255000, clk=1, ready=1, q=0, beat=0
# Time=260000, clk=0, ready=1, q=0, beat=0
# Time=265000, clk=1, ready=1, q=1, beat=0
# Time=270000, clk=0, ready=1, q=1, beat=0
# Time=275000, clk=1, ready=0, q=2, beat=0
# Time=280000, clk=0, ready=0, q=2, beat=0
# Time=285000, clk=1, ready=1, q=2, beat=1
# Time=290000, clk=0, ready=1, q=2, beat=1
# Time=295000, clk=1, ready=0, q=0, beat=0
# Time=300000, clk=0, ready=0, q=0, beat=0
# Time=305000, clk=1, ready=0, q=0, beat=0
# Time=310000, clk=0, ready=0, q=0, beat=0
# Time=315000, clk=1, ready=0, q=0, beat=0
# Time=320000, clk=0, ready=0, q=0, beat=0
# Time=325000, clk=1, ready=0, q=0, beat=0
# Time=330000, clk=0, ready=0, q=0, beat=0
# Time=335000, clk=1, ready=0, q=0, beat=0
# Time=340000, clk=0, ready=0, q=0, beat=0
# ** Note: $finish    : D:/constructing_projects/FPGA_projects/FPGA_design_course/lab19_MusicPlayer/src/testbench/beater_tb.v(60)
#    Time: 345 ns  Iteration: 1  Instance: /beater_tb
# 1
# Break in Module beater_tb at D:/constructing_projects/FPGA_projects/FPGA_design_course/lab19_MusicPlayer/src/testbench/beater_tb.v line 60
# Compile of beater_tb.v was successful.
restart -f
# Closing VCD file "dump.vcd"
# ** Note: (vsim-12125) Error and warning message counts have been reset to '0' because of 'restart'.
# Loading work.beater_tb
run -all
# GetModuleFileName: 找不到指定的模块。
# 
# 
# Time=0, clk=0, ready=0, q=x, beat=0
# Time=5000, clk=1, ready=0, q=0, beat=0
# Time=10000, clk=0, ready=0, q=0, beat=0
# Time=15000, clk=1, ready=0, q=0, beat=0
# Time=20000, clk=0, ready=0, q=0, beat=0
# Time=25000, clk=1, ready=1, q=0, beat=0
# Time=30000, clk=0, ready=1, q=0, beat=0
# Time=35000, clk=1, ready=1, q=1, beat=0
# Time=40000, clk=0, ready=1, q=1, beat=0
# Time=45000, clk=1, ready=1, q=2, beat=1
# Time=50000, clk=0, ready=1, q=2, beat=1
# Time=55000, clk=1, ready=1, q=0, beat=0
# Time=60000, clk=0, ready=1, q=0, beat=0
# Time=65000, clk=1, ready=1, q=1, beat=0
# Time=70000, clk=0, ready=1, q=1, beat=0
# Time=75000, clk=1, ready=1, q=2, beat=1
# Time=80000, clk=0, ready=1, q=2, beat=1
# Time=85000, clk=1, ready=1, q=0, beat=0
# Time=90000, clk=0, ready=1, q=0, beat=0
# Time=95000, clk=1, ready=1, q=1, beat=0
# Time=100000, clk=0, ready=1, q=1, beat=0
# Time=105000, clk=1, ready=1, q=2, beat=1
# Time=110000, clk=0, ready=1, q=2, beat=1
# Time=115000, clk=1, ready=1, q=0, beat=0
# Time=120000, clk=0, ready=1, q=0, beat=0
# Time=125000, clk=1, ready=0, q=1, beat=0
# Time=130000, clk=0, ready=0, q=1, beat=0
# Time=135000, clk=1, ready=0, q=1, beat=0
# Time=140000, clk=0, ready=0, q=1, beat=0
# Time=145000, clk=1, ready=0, q=1, beat=0
# Time=150000, clk=0, ready=0, q=1, beat=0
# Time=155000, clk=1, ready=0, q=1, beat=0
# Time=160000, clk=0, ready=0, q=1, beat=0
# Time=165000, clk=1, ready=0, q=1, beat=0
# Time=170000, clk=0, ready=0, q=1, beat=0
# Time=175000, clk=1, ready=1, q=1, beat=0
# Time=180000, clk=0, ready=1, q=1, beat=0
# Time=185000, clk=1, ready=1, q=2, beat=1
# Time=190000, clk=0, ready=1, q=2, beat=1
# Time=195000, clk=1, ready=1, q=0, beat=0
# Time=200000, clk=0, ready=1, q=0, beat=0
# Time=205000, clk=1, ready=1, q=1, beat=0
# Time=210000, clk=0, ready=1, q=1, beat=0
# Time=215000, clk=1, ready=1, q=2, beat=1
# Time=220000, clk=0, ready=1, q=2, beat=1
# Time=225000, clk=1, ready=1, q=0, beat=0
# Time=230000, clk=0, ready=1, q=0, beat=0
# Time=235000, clk=1, ready=1, q=1, beat=0
# Time=240000, clk=0, ready=1, q=1, beat=0
# Time=245000, clk=1, ready=1, q=2, beat=1
# Time=250000, clk=0, ready=1, q=2, beat=1
# Time=255000, clk=1, ready=1, q=0, beat=0
# Time=260000, clk=0, ready=1, q=0, beat=0
# Time=265000, clk=1, ready=1, q=1, beat=0
# Time=270000, clk=0, ready=1, q=1, beat=0
# Time=275000, clk=1, ready=0, q=2, beat=0
# Time=280000, clk=0, ready=0, q=2, beat=0
# Time=285000, clk=1, ready=1, q=2, beat=1
# Time=290000, clk=0, ready=1, q=2, beat=1
# Time=295000, clk=1, ready=0, q=0, beat=0
# Time=300000, clk=0, ready=0, q=0, beat=0
# Time=305000, clk=1, ready=0, q=0, beat=0
# Time=310000, clk=0, ready=0, q=0, beat=0
# Time=315000, clk=1, ready=0, q=0, beat=0
# Time=320000, clk=0, ready=0, q=0, beat=0
# Time=325000, clk=1, ready=0, q=0, beat=0
# Time=330000, clk=0, ready=0, q=0, beat=0
# Time=335000, clk=1, ready=0, q=0, beat=0
# Time=340000, clk=0, ready=0, q=0, beat=0
# ** Note: $stop    : D:/constructing_projects/FPGA_projects/FPGA_design_course/lab19_MusicPlayer/src/testbench/beater_tb.v(61)
#    Time: 345 ns  Iteration: 1  Instance: /beater_tb
# Break in Module beater_tb at D:/constructing_projects/FPGA_projects/FPGA_design_course/lab19_MusicPlayer/src/testbench/beater_tb.v line 61
quit -sim
# End time: 20:23:23 on May 06,2026, Elapsed time: 0:01:48
# Errors: 0, Warnings: 1
# reading D:/program/intelFPGA/20.1/modelsim_ase/win32aloem/../modelsim.ini
# Loading project syncer
# Compile of syncer_tb.v failed with 1 errors.
# Compile of syncer.v was successful.
# 2 compiles, 1 failed with 1 error.
# Compile of syncer_tb.v was successful.
# Compile of syncer.v was successful.
# 2 compiles, 0 failed with no errors.
vsim work.syncer_tb
# vsim work.syncer_tb 
# Start time: 20:35:10 on May 06,2026
# Loading work.syncer_tb
# Loading work.syncer
add wave sim:/syncer_tb/*
run -all
# === Syncer Testbench ===
# Test 1: Normal pulse (30ns)
# Test 2: Short pulse (5ns)
# Test 3: Back-to-back pulses
# Test 4: Long pulse (100ns)
# === All tests completed ===
# ** Note: $stop    : D:/constructing_projects/FPGA_projects/FPGA_design_course/lab19_MusicPlayer/src/testbench/syncer_tb.v(64)
#    Time: 375 ns  Iteration: 0  Instance: /syncer_tb
# Break in Module syncer_tb at D:/constructing_projects/FPGA_projects/FPGA_design_course/lab19_MusicPlayer/src/testbench/syncer_tb.v line 64
restart -f
# ** Note: (vsim-12125) Error and warning message counts have been reset to '0' because of 'restart'.
run -all
# GetModuleFileName: 找不到指定的模块。
# 
# 
# === Syncer Testbench ===
# Test 1: Normal pulse (30ns)
# Test 2: Short pulse (5ns)
# Test 3: Back-to-back pulses
# Test 4: Long pulse (100ns)
# === All tests completed ===
# ** Note: $stop    : D:/constructing_projects/FPGA_projects/FPGA_design_course/lab19_MusicPlayer/src/testbench/syncer_tb.v(64)
#    Time: 375 ns  Iteration: 0  Instance: /syncer_tb
# Break in Module syncer_tb at D:/constructing_projects/FPGA_projects/FPGA_design_course/lab19_MusicPlayer/src/testbench/syncer_tb.v line 64
restart -f
run -all
# GetModuleFileName: 找不到指定的模块。
# 
# 
# === Syncer Testbench ===
# Test 1: Normal pulse (30ns)
# Test 2: Short pulse (5ns)
# Test 3: Back-to-back pulses
# Test 4: Long pulse (100ns)
# === All tests completed ===
# ** Note: $stop    : D:/constructing_projects/FPGA_projects/FPGA_design_course/lab19_MusicPlayer/src/testbench/syncer_tb.v(64)
#    Time: 375 ns  Iteration: 0  Instance: /syncer_tb
# Break in Module syncer_tb at D:/constructing_projects/FPGA_projects/FPGA_design_course/lab19_MusicPlayer/src/testbench/syncer_tb.v line 64
quit -sim
# End time: 20:40:50 on May 06,2026, Elapsed time: 0:05:40
# Errors: 0, Warnings: 1
vsim work.syncer_tb
# vsim work.syncer_tb 
# Start time: 20:40:53 on May 06,2026
# Loading work.syncer_tb
# Loading work.syncer
add wave sim:/syncer_tb/*
run -all
# === Syncer Testbench ===
# Test 1: Normal pulse (30ns)
# Test 2: Short pulse (5ns)
# Test 3: Back-to-back pulses
# Test 4: Long pulse (100ns)
# === All tests completed ===
# ** Note: $stop    : D:/constructing_projects/FPGA_projects/FPGA_design_course/lab19_MusicPlayer/src/testbench/syncer_tb.v(64)
#    Time: 375 ns  Iteration: 0  Instance: /syncer_tb
# Break in Module syncer_tb at D:/constructing_projects/FPGA_projects/FPGA_design_course/lab19_MusicPlayer/src/testbench/syncer_tb.v line 64
# End time: 20:41:52 on May 06,2026, Elapsed time: 0:00:59
# Errors: 0, Warnings: 1
