prj/vcd/note_player_tb.vcd
$date
	Wed May 06 20:02:16 2026
$end
$version
	Icarus Verilog
$end
$timescale
	1ps
$end
$scope module note_player_tb $end
$var wire 1 ! sample_ready $end
$var wire 16 " sample [15:0] $end
$var wire 1 # note_done $end
$var parameter 32 $ delay $end
$var reg 1 % beat $end
$var reg 1 & clk $end
$var reg 6 ' duration_to_load [5:0] $end
$var reg 1 ( load_new_note $end
$var reg 1 ) new_note1 $end
$var reg 1 * new_note2 $end
$var reg 6 + note_to_load [5:0] $end
$var reg 1 , play_enable $end
$var reg 1 - reset $end
$var reg 1 . sampling_pulse $end
$var reg 2 / temp_1 [1:0] $end
$var reg 4 0 temp_2 [3:0] $end
$scope module uut $end
$var wire 1 1 R $end
$var wire 1 % beat $end
$var wire 1 & clk $end
$var wire 6 2 duration_to_load [5:0] $end
$var wire 1 ( load_new_note $end
$var wire 6 3 note_to_load [5:0] $end
$var wire 1 , play_enable $end
$var wire 1 - reset $end
$var wire 1 . sampling_pulse $end
$var wire 1 4 timer_done $end
$var wire 1 5 timer_clear $end
$var wire 1 ! sample_ready $end
$var wire 16 6 sample [15:0] $end
$var wire 1 # note_done $end
$var wire 1 7 load $end
$var wire 20 8 dout [19:0] $end
$var wire 6 9 addr [5:0] $end
$var wire 22 : K [21:0] $end
$scope module u_DDS $end
$var wire 22 ; K [21:0] $end
$var wire 1 & clk $end
$var wire 1 1 reset $end
$var wire 1 . sampling_pulse $end
$var wire 22 < sum [21:0] $end
$var wire 16 = sample [15:0] $end
$var wire 10 > rom_addr [9:0] $end
$var wire 16 ? raw_data [15:0] $end
$var wire 22 @ raw_addr [21:0] $end
$var wire 1 ! new_sample_ready $end
$var wire 16 A data [15:0] $end
$var wire 1 B area $end
$var parameter 32 C n $end
$scope module u_DFF $end
$var wire 1 . D $end
$var wire 1 D EN $end
$var wire 1 E R $end
$var wire 1 & clk $end
$var parameter 32 F n $end
$var reg 1 ! Q $end
$upscope $end
$scope module u_DFF_addr $end
$var wire 1 . EN $end
$var wire 1 1 R $end
$var wire 1 & clk $end
$var wire 22 G D [21:0] $end
$var parameter 32 H n $end
$var reg 22 I Q [21:0] $end
$upscope $end
$scope module u_DFF_area $end
$var wire 1 J D $end
$var wire 1 K EN $end
$var wire 1 L R $end
$var wire 1 & clk $end
$var parameter 32 M n $end
$var reg 1 B Q $end
$upscope $end
$scope module u_DFF_sample $end
$var wire 1 . EN $end
$var wire 1 N R $end
$var wire 1 & clk $end
$var wire 16 O D [15:0] $end
$var parameter 32 P n $end
$var reg 16 Q Q [15:0] $end
$upscope $end
$scope module u_adder $end
$var wire 22 R a [21:0] $end
$var wire 22 S b [21:0] $end
$var wire 1 T ci $end
$var wire 22 U sum [21:0] $end
$var wire 1 V co $end
$var parameter 32 W n $end
$upscope $end
$scope module u_addr_process $end
$var wire 11 X raw_addr [10:0] $end
$var reg 10 Y rom_addr [9:0] $end
$upscope $end
$scope module u_data_process $end
$var wire 1 B area $end
$var wire 16 Z dout [15:0] $end
$var wire 16 [ din [15:0] $end
$upscope $end
$scope module u_sine_rom $end
$var wire 10 \ addr [9:0] $end
$var wire 1 & clk $end
$var reg 16 ] dout [15:0] $end
$upscope $end
$upscope $end
$scope module u_DFF $end
$var wire 6 ^ D [5:0] $end
$var wire 1 1 R $end
$var wire 1 & clk $end
$var wire 1 7 EN $end
$var parameter 32 _ n $end
$var reg 6 ` Q [5:0] $end
$upscope $end
$scope module u_frequency_rom $end
$var wire 6 a addr [5:0] $end
$var wire 1 & clk $end
$var reg 20 b dout [19:0] $end
$upscope $end
$scope module u_np_controller $end
$var wire 1 & clk $end
$var wire 1 ( load_new_note $end
$var wire 1 , play_enable $end
$var wire 1 - reset $end
$var wire 1 4 timer_done $end
$var parameter 2 c DONE $end
$var parameter 2 d LOAD $end
$var parameter 2 e RESET $end
$var parameter 2 f WAIT $end
$var reg 1 7 load $end
$var reg 2 g next_state [1:0] $end
$var reg 1 # note_done $end
$var reg 2 h state [1:0] $end
$var reg 1 5 timer_clear $end
$upscope $end
$scope module u_timer $end
$var wire 1 % beat $end
$var wire 1 & clk $end
$var wire 6 i duration_to_load [5:0] $end
$var wire 1 5 timer_clear $end
$var wire 1 4 timer_done $end
$var reg 6 j q [5:0] $end
$upscope $end
$upscope $end
$upscope $end
$enddefinitions $end
$comment Show the parameter values. $end
$dumpall
b11 f
b0 e
b1 d
b10 c
b110 _
b10110 W
b10000 P
b1 M
b10110 H
b1 F
b10110 C
b1010 $
$end
#0
$dumpvars
bx j
b1010 i
bx h
b0 g
bx b
bx a
bx `
b100110 ^
bx ]
bx \
bx [
bx Z
bx Y
bx X
xV
bx U
0T
bx S
b0xxxxxxxxxxxxxxxxxxxx R
bx Q
bx O
0N
0L
1K
xJ
bx I
bx G
0E
1D
xB
bx A
bx @
bx ?
bx >
bx =
bx <
b0xxxxxxxxxxxxxxxxxxxx ;
b0xxxxxxxxxxxxxxxxxxxx :
bx 9
bx 8
07
bx 6
15
x4
b100110 3
b1010 2
11
b0 0
b0 /
x.
1-
0,
b100110 +
x*
0)
x(
b1010 '
0&
x%
0#
bx "
x!
$end
#5000
b0 >
b0 Y
b0 \
b11 g
b0 X
0J
b0 9
b0 `
b0 a
b0 h
b0 j
b0 @
b0 I
b0 S
04
0%
0.
0(
b1 /
0*
1&
#10000
0&
#15000
0!
0B
b0 A
b0 O
b0 Z
b0 <
b0 G
b0 U
0V
b10 /
b0 ?
b0 [
b0 ]
b0 :
b0 ;
b0 R
b0 8
b0 b
1&
#16000
0-
#20000
0&
#25000
05
b0 g
b11 h
1.
b11 /
1&
#30000
0&
#35000
15
b11 g
1!
b0 "
b0 6
b0 =
b0 Q
b0 h
0.
b1 0
b0 /
1&
#40000
0&
#45000
05
b0 g
b11 h
0!
b1 /
1&
#50000
0&
#55000
15
b11 g
b0 h
b10 /
1&
#60000
0&
#65000
05
b0 g
b11 h
1.
b11 /
1&
#66000
01
b11 g
1,
#70000
0&
#75000
1!
0.
b10 0
b0 /
1&
#80000
0&
#85000
0!
b1 /
1&
#86000
b1 g
1(
1)
#90000
0&
#95000
17
15
b11 g
b1 h
b10 /
1&
#96000
0(
0)
#100000
0&
#105000
07
05
b100110 9
b100110 `
b100110 a
b11 h
1.
b11 /
1&
#110000
0&
#115000
1!
0.
b10011111000011111 <
b10011111000011111 G
b10011111000011111 U
b11 0
b0 /
b10011111000011111 :
b10011111000011111 ;
b10011111000011111 R
b10011111000011111 8
b10011111000011111 b
1&
#120000
0&
#125000
0!
b1 /
1&
#130000
0&
#135000
b10 /
1&
#140000
0&
#145000
1.
b11 /
1&
#150000
0&
#155000
b1001111 >
b1001111 Y
b1001111 \
b100111110000111110 <
b100111110000111110 G
b100111110000111110 U
b1001111 X
1!
b10011111000011111 @
b10011111000011111 I
b10011111000011111 S
0.
b100 0
b0 /
1&
#160000
0&
#165000
0!
b111101111001 A
b111101111001 O
b111101111001 Z
b111101111001 ?
b111101111001 [
b111101111001 ]
b1 /
1&
#170000
0&
#175000
b10 /
1&
#180000
0&
#185000
1.
b11 /
1&
#190000
0&
#195000
b10011111 >
b10011111 Y
b10011111 \
b111011101001011101 <
b111011101001011101 G
b111011101001011101 U
b10011111 X
1!
b111101111001 "
b111101111001 6
b111101111001 =
b111101111001 Q
b100111110000111110 @
b100111110000111110 I
b100111110000111110 S
0.
b101 0
b0 /
1&
#200000
0&
#205000
0!
b1111011101001 A
b1111011101001 O
b1111011101001 Z
b1111011101001 ?
b1111011101001 [
b1111011101001 ]
b1 /
1&
#210000
0&
#215000
b10 /
1&
#220000
0&
#225000
1.
b11 /
1&
#230000
0&
#235000
b11101110 >
b11101110 Y
b11101110 \
b1001111100001111100 <
b1001111100001111100 G
b1001111100001111100 U
b11101110 X
1!
b1111011101001 "
b1111011101001 6
b1111011101001 =
b1111011101001 Q
b111011101001011101 @
b111011101001011101 I
b111011101001011101 S
0.
b110 0
b0 /
1&
#240000
0&
#245000
0!
b10110110110011 A
b10110110110011 O
b10110110110011 Z
b10110110110011 ?
b10110110110011 [
b10110110110011 ]
b1 /
1&
#250000
0&
#255000
b10 /
1&
#260000
0&
#265000
1.
b11 /
1&
#270000
0&
#275000
b100111110 >
b100111110 Y
b100111110 \
b1100011011010011011 <
b1100011011010011011 G
b1100011011010011011 U
b100111110 X
1!
b10110110110011 "
b10110110110011 6
b10110110110011 =
b10110110110011 Q
b1001111100001111100 @
b1001111100001111100 I
b1001111100001111100 S
0.
b111 0
b0 /
1&
#280000
0&
#285000
0!
b11101111111110 A
b11101111111110 O
b11101111111110 Z
b11101111111110 ?
b11101111111110 [
b11101111111110 ]
b1 /
1&
#290000
0&
#295000
b10 /
1&
#300000
0&
#305000
1.
b11 /
1&
#310000
0&
#315000
b110001101 >
b110001101 Y
b110001101 \
b1110111010010111010 <
b1110111010010111010 G
b1110111010010111010 U
b110001101 X
1!
b11101111111110 "
b11101111111110 6
b11101111111110 =
b11101111111110 Q
b1100011011010011011 @
b1100011011010011011 I
b1100011011010011011 S
0.
b1000 0
b0 /
1&
#320000
0&
#325000
0!
b100100100111000 A
b100100100111000 O
b100100100111000 Z
b100100100111000 ?
b100100100111000 [
b100100100111000 ]
b1 /
1&
#330000
0&
#335000
b10 /
1&
#340000
0&
#345000
1.
b11 /
1&
#350000
0&
#355000
b111011101 >
b111011101 Y
b111011101 \
b10001011001011011001 <
b10001011001011011001 G
b10001011001011011001 U
b111011101 X
1!
b100100100111000 "
b100100100111000 6
b100100100111000 =
b100100100111000 Q
b1110111010010111010 @
b1110111010010111010 I
b1110111010010111010 S
0.
b1001 0
b0 /
1&
#360000
0&
#365000
0!
b101010110000101 A
b101010110000101 O
b101010110000101 Z
b101010110000101 ?
b101010110000101 [
b101010110000101 ]
b1 /
1&
#370000
0&
#375000
b10 /
1&
#380000
0&
#385000
1.
b11 /
1&
#390000
0&
#395000
b1000101100 >
b1000101100 Y
b1000101100 \
b10011111000011111000 <
b10011111000011111000 G
b10011111000011111000 U
b1000101100 X
1!
b101010110000101 "
b101010110000101 6
b101010110000101 =
b101010110000101 Q
b10001011001011011001 @
b10001011001011011001 I
b10001011001011011001 S
0.
b1010 0
b0 /
1&
#400000
0&
#405000
0!
b110000001101000 A
b110000001101000 O
b110000001101000 Z
b110000001101000 ?
b110000001101000 [
b110000001101000 ]
b1 /
1&
#410000
0&
#415000
b10 /
1&
#420000
0&
#425000
1.
b11 /
1&
#430000
0&
#435000
b1001111100 >
b1001111100 Y
b1001111100 \
b10110010111100010111 <
b10110010111100010111 G
b10110010111100010111 U
b1001111100 X
1!
b110000001101000 "
b110000001101000 6
b110000001101000 =
b110000001101000 Q
b10011111000011111000 @
b10011111000011111000 I
b10011111000011111000 S
0.
b1011 0
b0 /
1&
#440000
0&
#445000
0!
b110100111111101 A
b110100111111101 O
b110100111111101 Z
b110100111111101 ?
b110100111111101 [
b110100111111101 ]
b1 /
1&
#450000
0&
#455000
b10 /
1&
#460000
0&
#465000
1.
b11 /
1&
#470000
0&
#475000
b1011001011 >
b1011001011 Y
b1011001011 \
b11000110110100110110 <
b11000110110100110110 G
b11000110110100110110 U
b1011001011 X
1!
b110100111111101 "
b110100111111101 6
b110100111111101 =
b110100111111101 Q
b10110010111100010111 @
b10110010111100010111 I
b10110010111100010111 S
0.
b1100 0
b0 /
1&
#480000
0&
#485000
0!
b111000111100010 A
b111000111100010 O
b111000111100010 Z
b111000111100010 ?
b111000111100010 [
b111000111100010 ]
b1 /
1&
#490000
0&
#495000
b10 /
1&
#500000
0&
#505000
1.
b11 /
1&
#510000
0&
#515000
b1100011011 >
b1100011011 Y
b1100011011 \
b11011010101101010101 <
b11011010101101010101 G
b11011010101101010101 U
b1100011011 X
1!
b111000111100010 "
b111000111100010 6
b111000111100010 =
b111000111100010 Q
b11000110110100110110 @
b11000110110100110110 I
b11000110110100110110 S
0.
b1101 0
b0 /
1&
#520000
0&
#525000
0!
b111100000101110 A
b111100000101110 O
b111100000101110 Z
b111100000101110 ?
b111100000101110 [
b111100000101110 ]
b1 /
1&
#530000
0&
#535000
b10 /
1&
#540000
0&
#545000
1.
b11 /
1&
#550000
0&
#555000
b1101101010 >
b1101101010 Y
b1101101010 \
b11101110100101110100 <
b11101110100101110100 G
b11101110100101110100 U
b1101101010 X
1!
b111100000101110 "
b111100000101110 6
b111100000101110 =
b111100000101110 Q
b11011010101101010101 @
b11011010101101010101 I
b11011010101101010101 S
0.
b1110 0
b0 /
1&
#560000
0&
#565000
0!
b111110010011111 A
b111110010011111 O
b111110010011111 Z
b111110010011111 ?
b111110010011111 [
b111110010011111 ]
b1 /
1&
#570000
0&
#575000
b10 /
1&
#580000
0&
#585000
1.
b11 /
1&
#590000
0&
#595000
b1110111010 >
b1110111010 Y
b1110111010 \
b100000010011110010011 <
b100000010011110010011 G
b100000010011110010011 U
b1110111010 X
1!
b111110010011111 "
b111110010011111 6
b111110010011111 =
b111110010011111 Q
b11101110100101110100 @
b11101110100101110100 I
b11101110100101110100 S
0.
b1111 0
b0 /
1&
#600000
0&
#605000
0!
b111111101000010 A
b111111101000010 O
b111111101000010 Z
b111111101000010 ?
b111111101000010 [
b111111101000010 ]
b1 /
1&
#610000
0&
#615000
b10 /
1&
#620000
0&
#625000
1%
1.
b11 /
1&
#630000
0&
#635000
b1111110111 >
b1111110111 Y
b1111110111 \
b100010110010110110010 <
b100010110010110110010 G
b100010110010110110010 U
b10000001001 X
1!
b111111101000010 "
b111111101000010 6
b111111101000010 =
b111111101000010 Q
b100000010011110010011 @
b100000010011110010011 I
b100000010011110010011 S
b1 j
0%
0.
b0 0
b0 /
1&
#640000
0&
#645000
0!
b111111111111100 A
b111111111111100 O
b111111111111100 Z
b111111111111100 ?
b111111111111100 [
b111111111111100 ]
b1 /
1&
#650000
0&
#655000
b10 /
1&
#660000
0&
#665000
1.
b11 /
1&
#670000
0&
#675000
b1110100111 >
b1110100111 Y
b1110100111 \
b100101010001111010001 <
b100101010001111010001 G
b100101010001111010001 U
b10001011001 X
1!
b111111111111100 "
b111111111111100 6
b111111111111100 =
b111111111111100 Q
b100010110010110110010 @
b100010110010110110010 I
b100010110010110110010 S
0.
b1 0
b0 /
1&
#680000
0&
#685000
0!
b111111011001110 A
b111111011001110 O
b111111011001110 Z
b111111011001110 ?
b111111011001110 [
b111111011001110 ]
b1 /
1&
#690000
0&
#695000
b10 /
1&
#700000
0&
#705000
1.
b11 /
1&
#710000
0&
#715000
b1101011000 >
b1101011000 Y
b1101011000 \
b100111110000111110000 <
b100111110000111110000 G
b100111110000111110000 U
b10010101000 X
1!
b111111011001110 "
b111111011001110 6
b111111011001110 =
b111111011001110 Q
b100101010001111010001 @
b100101010001111010001 I
b100101010001111010001 S
0.
b10 0
b0 /
1&
#720000
0&
#725000
0!
b111101111000101 A
b111101111000101 O
b111101111000101 Z
b111101111000101 ?
b111101111000101 [
b111101111000101 ]
b1 /
1&
#730000
0&
#735000
b10 /
1&
#740000
0&
#745000
1.
b11 /
1&
#750000
0&
#755000
b1100001000 >
b1100001000 Y
b1100001000 \
b101010010000000001111 <
b101010010000000001111 G
b101010010000000001111 U
b10011111000 X
1!
b111101111000101 "
b111101111000101 6
b111101111000101 =
b111101111000101 Q
b100111110000111110000 @
b100111110000111110000 I
b100111110000111110000 S
0.
b11 0
b0 /
1&
#760000
0&
#765000
0!
b111011011011000 A
b111011011011000 O
b111011011011000 Z
b111011011011000 ?
b111011011011000 [
b111011011011000 ]
b1 /
1&
#770000
0&
#775000
b10 /
1&
#780000
0&
#785000
1.
b11 /
1&
#790000
0&
#795000
b1010111000 >
b1010111000 Y
b1010111000 \
b101100101111000101110 <
b101100101111000101110 G
b101100101111000101110 U
b10101001000 X
1!
b111011011011000 "
b111011011011000 6
b111011011011000 =
b111011011011000 Q
b101010010000000001111 @
b101010010000000001111 I
b101010010000000001111 S
0.
b100 0
b0 /
1&
#800000
0&
#805000
0!
b111000000100010 A
b111000000100010 O
b111000000100010 Z
b111000000100010 ?
b111000000100010 [
b111000000100010 ]
b1 /
1&
#810000
0&
#815000
b10 /
1&
#820000
0&
#825000
1.
b11 /
1&
#830000
0&
#835000
b1001101001 >
b1001101001 Y
b1001101001 \
b101111001110001001101 <
b101111001110001001101 G
b101111001110001001101 U
b10110010111 X
1!
b111000000100010 "
b111000000100010 6
b111000000100010 =
b111000000100010 Q
b101100101111000101110 @
b101100101111000101110 I
b101100101111000101110 S
0.
b101 0
b0 /
1&
#840000
0&
#845000
0!
b110011111011010 A
b110011111011010 O
b110011111011010 Z
b110011111011010 ?
b110011111011010 [
b110011111011010 ]
b1 /
1&
#850000
0&
#855000
b10 /
1&
#860000
0&
#865000
1.
b11 /
1&
#870000
0&
#875000
b1000011001 >
b1000011001 Y
b1000011001 \
b110001101101001101100 <
b110001101101001101100 G
b110001101101001101100 U
b10111100111 X
1!
b110011111011010 "
b110011111011010 6
b110011111011010 =
b110011111011010 Q
b101111001110001001101 @
b101111001110001001101 I
b101111001110001001101 S
0.
b110 0
b0 /
1&
#880000
0&
#885000
0!
b101110111101001 A
b101110111101001 O
b101110111101001 Z
b101110111101001 ?
b101110111101001 [
b101110111101001 ]
b1 /
1&
#890000
0&
#895000
b10 /
1&
#900000
0&
#905000
1.
b11 /
1&
#910000
0&
#915000
b111001010 >
b111001010 Y
b111001010 \
b110100001100010001011 <
b110100001100010001011 G
b110100001100010001011 U
b11000110110 X
1!
b101110111101001 "
b101110111101001 6
b101110111101001 =
b101110111101001 Q
b110001101101001101100 @
b110001101101001101100 I
b110001101101001101100 S
0.
b111 0
b0 /
1&
#920000
0&
#925000
0!
b101001010110101 A
b101001010110101 O
b101001010110101 Z
b101001010110101 ?
b101001010110101 [
b101001010110101 ]
b1 /
1&
#930000
0&
#935000
b10 /
1&
#940000
0&
#945000
1.
b11 /
1&
#950000
0&
#955000
b101111010 >
b101111010 Y
b101111010 \
b110110101011010101010 <
b110110101011010101010 G
b110110101011010101010 U
b11010000110 X
1!
b101001010110101 "
b101001010110101 6
b101001010110101 =
b101001010110101 Q
b110100001100010001011 @
b110100001100010001011 I
b110100001100010001011 S
0.
b1000 0
b0 /
1&
#960000
0&
#965000
0!
b100011000100001 A
b100011000100001 O
b100011000100001 Z
b100011000100001 ?
b100011000100001 [
b100011000100001 ]
b1 /
1&
#970000
0&
#975000
b10 /
1&
#980000
0&
#985000
1.
b11 /
1&
#990000
0&
#995000
b100101011 >
b100101011 Y
b100101011 \
b111001001010011001001 <
b111001001010011001001 G
b111001001010011001001 U
b11011010101 X
1!
b100011000100001 "
b100011000100001 6
b100011000100001 =
b100011000100001 Q
b110110101011010101010 @
b110110101011010101010 I
b110110101011010101010 S
0.
b1001 0
b0 /
1&
#1000000
0&
#1005000
0!
b11100010101011 A
b11100010101011 O
b11100010101011 Z
b11100010101011 ?
b11100010101011 [
b11100010101011 ]
b1 /
1&
#1010000
0&
#1015000
b10 /
1&
#1020000
0&
#1025000
1.
b11 /
1&
#1030000
0&
#1035000
b11011011 >
b11011011 Y
b11011011 \
b111011101001011101000 <
b111011101001011101000 G
b111011101001011101000 U
b11100100101 X
1!
b11100010101011 "
b11100010101011 6
b11100010101011 =
b11100010101011 Q
b111001001010011001001 @
b111001001010011001001 I
b111001001010011001001 S
0.
b1010 0
b0 /
1&
#1040000
0&
#1045000
0!
b10101000110010 A
b10101000110010 O
b10101000110010 Z
b10101000110010 ?
b10101000110010 [
b10101000110010 ]
b1 /
1&
#1050000
0&
#1055000
b10 /
1&
#1060000
0&
#1065000
1.
b11 /
1&
#1070000
0&
#1075000
b10001100 >
b10001100 Y
b10001100 \
b111110001000100000111 <
b111110001000100000111 G
b111110001000100000111 U
b11101110100 X
1!
b10101000110010 "
b10101000110010 6
b10101000110010 =
b10101000110010 Q
b111011101001011101000 @
b111011101001011101000 I
b111011101001011101000 S
0.
b1011 0
b0 /
1&
#1080000
0&
#1085000
0!
b1101101000111 A
b1101101000111 O
b1101101000111 Z
b1101101000111 ?
b1101101000111 [
b1101101000111 ]
b1 /
1&
#1090000
0&
#1095000
b10 /
1&
#1100000
0&
#1105000
1.
b11 /
1&
#1110000
0&
#1115000
b111100 >
b111100 Y
b111100 \
b1000000100111100100110 <
b1000000100111100100110 G
b1000000100111100100110 U
b11111000100 X
1!
b1101101000111 "
b1101101000111 6
b1101101000111 =
b1101101000111 Q
b111110001000100000111 @
b111110001000100000111 I
b111110001000100000111 S
0.
b1100 0
b0 /
1&
#1120000
0&
#1125000
0!
b101111000100 A
b101111000100 O
b101111000100 Z
b101111000100 ?
b101111000100 [
b101111000100 ]
b1 /
1&
#1130000
0&
#1135000
b10 /
1&
#1140000
0&
#1145000
1.
b11 /
1&
#1150000
0&
#1155000
b10011 >
b10011 Y
b10011 \
b1000011000110101000101 <
b1000011000110101000101 G
b1000011000110101000101 U
b10011 X
1J
1!
b101111000100 "
b101111000100 6
b101111000100 =
b101111000100 Q
b1000000100111100100110 @
b1000000100111100100110 I
b1000000100111100100110 S
0.
b1101 0
b0 /
1&
#1160000
0&
#1165000
1B
0!
b1111110001000101 A
b1111110001000101 O
b1111110001000101 Z
b1110111011 ?
b1110111011 [
b1110111011 ]
b1 /
1&
#1170000
0&
#1175000
b10 /
1&
#1180000
0&
#1185000
1.
b11 /
1&
#1190000
0&
#1195000
b1100011 >
b1100011 Y
b1100011 \
b1000101100101101100100 <
b1000101100101101100100 G
b1000101100101101100100 U
b1100011 X
1!
b1111110001000101 "
b1111110001000101 6
b1111110001000101 =
b1111110001000101 Q
b1000011000110101000101 @
b1000011000110101000101 I
b1000011000110101000101 S
0.
b1110 0
b0 /
1&
#1200000
0&
#1205000
0!
b1110110010100011 A
b1110110010100011 O
b1110110010100011 Z
b1001101011101 ?
b1001101011101 [
b1001101011101 ]
b1 /
1&
#1210000
0&
#1215000
b10 /
1&
#1220000
0&
#1225000
1.
b11 /
1&
#1230000
0&
#1235000
b10110010 >
b10110010 Y
b10110010 \
b1001000000100110000011 <
b1001000000100110000011 G
b1001000000100110000011 U
b10110010 X
1!
b1110110010100011 "
b1110110010100011 6
b1110110010100011 =
b1110110010100011 Q
b1000101100101101100100 @
b1000101100101101100100 I
b1000101100101101100100 S
0.
b1111 0
b0 /
1&
#1240000
0&
#1245000
0!
b1101110101111100 A
b1101110101111100 O
b1101110101111100 Z
b10001010000100 ?
b10001010000100 [
b10001010000100 ]
b1 /
1&
#1250000
0&
#1255000
b10 /
1&
#1260000
0&
#1265000
1%
1.
b11 /
1&
#1270000
0&
#1275000
b100000010 >
b100000010 Y
b100000010 \
b1001010100011110100010 <
b1001010100011110100010 G
b1001010100011110100010 U
b100000010 X
1!
b1101110101111100 "
b1101110101111100 6
b1101110101111100 =
b1101110101111100 Q
b1001000000100110000011 @
b1001000000100110000011 I
b1001000000100110000011 S
b10 j
0%
0.
b0 0
b0 /
1&
#1280000
0&
#1285000
0!
b1100111010101000 A
b1100111010101000 O
b1100111010101000 Z
b11000101011000 ?
b11000101011000 [
b11000101011000 ]
b1 /
1&
#1290000
0&
#1295000
b10 /
1&
#1300000
0&
#1305000
1.
b11 /
1&
#1310000
0&
#1315000
b101010001 >
b101010001 Y
b101010001 \
b1001101000010111000001 <
b1001101000010111000001 G
b1001101000010111000001 U
b101010001 X
1!
b1100111010101000 "
b1100111010101000 6
b1100111010101000 =
b1100111010101000 Q
b1001010100011110100010 @
b1001010100011110100010 I
b1001010100011110100010 S
0.
b1 0
b0 /
1&
#1320000
0&
#1325000
0!
b1100000010111101 A
b1100000010111101 O
b1100000010111101 Z
b11111101000011 ?
b11111101000011 [
b11111101000011 ]
b1 /
1&
#1330000
0&
#1335000
b10 /
1&
#1340000
0&
#1345000
1.
b11 /
1&
#1350000
0&
#1355000
b110100001 >
b110100001 Y
b110100001 \
b1001111100001111100000 <
b1001111100001111100000 G
b1001111100001111100000 U
b110100001 X
1!
b1100000010111101 "
b1100000010111101 6
b1100000010111101 =
b1100000010111101 Q
b1001101000010111000001 @
b1001101000010111000001 I
b1001101000010111000001 S
0.
b10 0
b0 /
1&
#1360000
0&
#1365000
0!
b1011001110011000 A
b1011001110011000 O
b1011001110011000 Z
b100110001101000 ?
b100110001101000 [
b100110001101000 ]
b1 /
1&
#1370000
0&
#1375000
b10 /
1&
#1380000
0&
#1385000
1.
b11 /
1&
#1390000
0&
#1395000
b111110000 >
b111110000 Y
b111110000 \
b1010010000000111111111 <
b1010010000000111111111 G
b1010010000000111111111 U
b111110000 X
1!
b1011001110011000 "
b1011001110011000 6
b1011001110011000 =
b1011001110011000 Q
b1001111100001111100000 @
b1001111100001111100000 I
b1001111100001111100000 S
0.
b11 0
b0 /
1&
#1400000
0&
#1405000
0!
b1010011110111110 A
b1010011110111110 O
b1010011110111110 Z
b101100001000010 ?
b101100001000010 [
b101100001000010 ]
b1 /
1&
#1410000
0&
#1415000
b10 /
1&
#1420000
0&
#1425000
1.
b11 /
1&
#1430000
0&
#1435000
b1001000000 >
b1001000000 Y
b1001000000 \
b1010100100000000011110 <
b1010100100000000011110 G
b1010100100000000011110 U
b1001000000 X
1!
b1010011110111110 "
b1010011110111110 6
b1010011110111110 =
b1010011110111110 Q
b1010010000000111111111 @
b1010010000000111111111 I
b1010010000000111111111 S
0.
b100 0
b0 /
1&
#1440000
0&
#1445000
0!
b1001110100001111 A
b1001110100001111 O
b1001110100001111 Z
b110001011110001 ?
b110001011110001 [
b110001011110001 ]
b1 /
1&
#1450000
0&
#1455000
b10 /
1&
#1460000
0&
#1465000
1.
b11 /
1&
#1470000
0&
#1475000
b1010010000 >
b1010010000 Y
b1010010000 \
b1010110111111000111101 <
b1010110111111000111101 G
b1010110111111000111101 U
b1010010000 X
1!
b1001110100001111 "
b1001110100001111 6
b1001110100001111 =
b1001110100001111 Q
b1010100100000000011110 @
b1010100100000000011110 I
b1010100100000000011110 S
0.
b101 0
b0 /
1&
#1480000
0&
#1485000
0!
b1001001111011101 A
b1001001111011101 O
b1001001111011101 Z
b110110000100011 ?
b110110000100011 [
b110110000100011 ]
b1 /
1&
#1490000
0&
#1495000
b10 /
1&
#1500000
0&
#1505000
1.
b11 /
1&
#1510000
0&
#1515000
b1011011111 >
b1011011111 Y
b1011011111 \
b1011001011110001011100 <
b1011001011110001011100 G
b1011001011110001011100 U
b1011011111 X
1!
b1001001111011101 "
b1001001111011101 6
b1001001111011101 =
b1001001111011101 Q
b1010110111111000111101 @
b1010110111111000111101 I
b1010110111111000111101 S
0.
b110 0
b0 /
1&
#1520000
0&
#1525000
0!
b1000110001100001 A
b1000110001100001 O
b1000110001100001 Z
b111001110011111 ?
b111001110011111 [
b111001110011111 ]
b1 /
1&
#1530000
0&
#1535000
b10 /
1&
#1540000
0&
#1545000
1.
b11 /
1&
#1550000
0&
#1555000
b1100101111 >
b1100101111 Y
b1100101111 \
b1011011111101001111011 <
b1011011111101001111011 G
b1011011111101001111011 U
b1100101111 X
1!
b1000110001100001 "
b1000110001100001 6
b1000110001100001 =
b1000110001100001 Q
b1011001011110001011100 @
b1011001011110001011100 I
b1011001011110001011100 S
0.
b111 0
b0 /
1&
#1560000
0&
#1565000
0!
b1000011010000111 A
b1000011010000111 O
b1000011010000111 Z
b111100101111001 ?
b111100101111001 [
b111100101111001 ]
b1 /
1&
#1570000
0&
#1575000
b10 /
1&
#1580000
0&
#1585000
1.
b11 /
1&
#1590000
0&
#1595000
b1101111110 >
b1101111110 Y
b1101111110 \
b1011110011100010011010 <
b1011110011100010011010 G
b1011110011100010011010 U
b1101111110 X
1!
b1000011010000111 "
b1000011010000111 6
b1000011010000111 =
b1000011010000111 Q
b1011011111101001111011 @
b1011011111101001111011 I
b1011011111101001111011 S
0.
b1000 0
b0 /
1&
#1600000
0&
#1605000
0!
b1000001010001010 A
b1000001010001010 O
b1000001010001010 Z
b111110101110110 ?
b111110101110110 [
b111110101110110 ]
b1 /
1&
#1610000
0&
#1615000
b10 /
1&
#1620000
0&
#1625000
1.
b11 /
1&
#1630000
0&
#1635000
b1111001110 >
b1111001110 Y
b1111001110 \
b1100000111011010111001 <
b1100000111011010111001 G
b1100000111011010111001 U
b1111001110 X
1!
b1000001010001010 "
b1000001010001010 6
b1000001010001010 =
b1000001010001010 Q
b1011110011100010011010 @
b1011110011100010011010 I
b1011110011100010011010 S
0.
b1001 0
b0 /
1&
#1640000
0&
#1645000
0!
b1000000001100001 A
b1000000001100001 O
b1000000001100001 Z
b111111110011111 ?
b111111110011111 [
b111111110011111 ]
b1 /
1&
#1650000
0&
#1655000
b10 /
1&
#1660000
0&
#1665000
1.
b11 /
1&
#1670000
0&
#1675000
b1111100011 >
b1111100011 Y
b1111100011 \
b1100011011010011011000 <
b1100011011010011011000 G
b1100011011010011011000 U
b10000011101 X
1!
b1000000001100001 "
b1000000001100001 6
b1000000001100001 =
b1000000001100001 Q
b1100000111011010111001 @
b1100000111011010111001 I
b1100000111011010111001 S
0.
b1010 0
b0 /
1&
#1680000
0&
#1685000
0!
b1000000000100001 A
b1000000000100001 O
b1000000000100001 Z
b111111111011111 ?
b111111111011111 [
b111111111011111 ]
b1 /
1&
#1690000
0&
#1695000
b10 /
1&
#1700000
0&
#1705000
1.
b11 /
1&
#1710000
0&
#1715000
b1110010011 >
b1110010011 Y
b1110010011 \
b1100101111001011110111 <
b1100101111001011110111 G
b1100101111001011110111 U
b10001101101 X
1!
b1000000000100001 "
b1000000000100001 6
b1000000000100001 =
b1000000000100001 Q
b1100011011010011011000 @
b1100011011010011011000 I
b1100011011010011011000 S
0.
b1011 0
b0 /
1&
#1720000
0&
#1725000
0!
b1000000111001010 A
b1000000111001010 O
b1000000111001010 Z
b111111000110110 ?
b111111000110110 [
b111111000110110 ]
b1 /
1&
#1730000
0&
#1735000
b10 /
1&
